Lab1/rippleCounter.vcd
$date
	Thu Oct 12 15:14:51 2017
$end
$version
	Icarus Verilog
$end
$timescale
	1s
$end
$scope module testBench $end
$scope module rCount $end
$var wire 4 ! out [3:0] $end
$var wire 1 " reset $end
$var wire 4 # outi_bar [3:0] $end
$var wire 4 $ outi [3:0] $end
$var wire 1 % clk $end
$upscope $end
$upscope $end
$enddefinitions $end
#0
$dumpvars
1%
bx $
bx #
x"
bx !
$end
#50
0%
#100
1"
1%
#150
0%
#200
b1111 #
b0 !
b0 $
0"
1%
#250
0%
#300
1"
1%
#350
0%
#400
b1110 #
b1 !
b1 $
1%
#450
0%
#500
b1101 #
b10 !
b10 $
1%
#550
0%
#600
b1100 #
b11 !
b11 $
1%
#650
0%
#700
b1011 #
b100 !
b100 $
1%
#750
0%
#800
b1010 #
b101 !
b101 $
1%
#850
0%
#900
b1001 #
b110 !
b110 $
1%
#950
0%
#1000
b1000 #
b111 !
b111 $
1%
#1050
0%
#1100
b111 #
b1000 !
b1000 $
1%
#1150
0%
#1200
b110 #
b1001 !
b1001 $
1%
#1250
0%
#1300
b101 #
b1010 !
b1010 $
1%
#1350
0%
#1400
b100 #
b1011 !
b1011 $
1%
#1450
0%
#1500
b11 #
b1100 !
b1100 $
1%
#1550
0%
#1600
b10 #
b1101 !
b1101 $
1%
#1650
0%
#1700
b1 #
b1110 !
b1110 $
1%
#1750
0%
#1800
b0 #
b1111 !
b1111 $
1%
#1850
0%
#1900
b1111 #
b0 !
b0 $
1%
#1950
0%
#2000
b1110 #
b1 !
b1 $
1%
#2050
0%
#2100
b1101 #
b10 !
b10 $
1%
#2150
0%
#2200
b1100 #
b11 !
b11 $
1%
#2250
0%
#2300
b1011 #
b100 !
b100 $
1%
#2350
0%
#2400
b1010 #
b101 !
b101 $
1%
#2450
0%
#2500
b1001 #
b110 !
b110 $
1%
#2550
0%
#2600
b1000 #
b111 !
b111 $
1%
#2650
0%
#2700
b111 #
b1000 !
b1000 $
1%
#2750
0%
#2800
b110 #
b1001 !
b1001 $
1%
#2850
0%
#2900
b101 #
b1010 !
b1010 $
1%
#2950
0%
#3000
b100 #
b1011 !
b1011 $
1%
#3050
0%
#3100
b11 #
b1100 !
b1100 $
1%
#3150
0%
#3200
b10 #
b1101 !
b1101 $
1%
#3250
0%
#3300
b1 #
b1110 !
b1110 $
1%
#3350
0%
#3400
b0 #
b1111 !
b1111 $
1%
#3450
0%
#3500
b1111 #
b0 !
b0 $
1%
#3550
0%
#3600
b1110 #
b1 !
b1 $
1%
#3650
0%
#3700
b1101 #
b10 !
b10 $
1%
#3750
0%
#3800
b1100 #
b11 !
b11 $
1%
#3850
0%
#3900
b1011 #
b100 !
b100 $
1%
#3950
0%
#4000
b1010 #
b101 !
b101 $
1%
#4050
0%
#4100
b1001 #
b110 !
b110 $
1%
#4150
0%
#4200
b1000 #
b111 !
b111 $
1%
#4250
0%
#4300
b111 #
b1000 !
b1000 $
1%
#4350
0%
#4400
b110 #
b1001 !
b1001 $
1%
#4450
0%
#4500
b101 #
b1010 !
b1010 $
1%
#4550
0%
#4600
b100 #
b1011 !
b1011 $
1%
#4650
0%
#4700
b11 #
b1100 !
b1100 $
1%
#4750
0%
#4800
b10 #
b1101 !
b1101 $
1%
